<svg id="logo-cia" xmlns="http://www.w3.org/2000/svg" viewBox="0 0 225 55">
  <defs>
    <clipPath id="clip-path">
      <path d="M55.22,29.63A23.92,23.92,0,1,1,31.31,5.71,23.91,23.91,0,0,1,55.22,29.63Z" style="fill: none"/>
    </clipPath>
  </defs>
  <g id="root">
    <path id="B" d="M55.75,29.63A24.45,24.45,0,1,1,31.3,5.19,24.45,24.45,0,0,1,55.75,29.63Z" style="fill: #a7a9ac"/>
    <path id="B-2" data-name="B" d="M55.75,29.63A24.45,24.45,0,1,1,31.3,5.19,24.45,24.45,0,0,1,55.75,29.63Z" style="fill: #fff"/>
    <path d="M55.75,29.63A24.45,24.45,0,1,1,31.3,5.19,24.45,24.45,0,0,1,55.75,29.63" style="fill: none;stroke: #a7a9ac;stroke-miterlimit: 22.952792118052685;stroke-width: 0.9931592435647332px"/>
    <path d="M51.47,37.72a27.91,27.91,0,0,0,1.18-7.91h3.09v-.5H52.65a28,28,0,0,0-1.46-8.65l2.64-.55-.22-.47L51,20.18a25.64,25.64,0,0,0-3.86-7.06l1.57-.62-.37-.37c-.5.21-1,.41-1.52.59a21.43,21.43,0,0,0-8.18-6.27l.1-.1-.59-.18-.06.06c-.34-.13-.68-.24-1-.35a24.21,24.21,0,0,0-11.56,0c-.35.11-.69.21-1,.35l-.07-.06-.59.18.11.09a21.67,21.67,0,0,0-8.19,6.28c-.51-.18-1-.38-1.51-.59l-.37.37,1.56.62a25.38,25.38,0,0,0-3.85,7.06c-.87-.17-1.73-.35-2.59-.54l-.21.47c.87.2,1.75.38,2.63.55A27.68,27.68,0,0,0,10,29.31H6.87v.5H10a28.26,28.26,0,0,0,1.17,7.91c-.9.17-1.79.37-2.68.58,0,.16.12.31.18.47.88-.21,1.76-.4,2.65-.57a26,26,0,0,0,3.6,7.2c-.57.22-1.11.46-1.65.7l.35.37c.53-.24,1.06-.46,1.6-.66a22,22,0,0,0,8,6.68l-.16.16.53.18a1.36,1.36,0,0,0,.12-.12c.55.24,1.1.45,1.67.64a24.66,24.66,0,0,0,11.83,0c.56-.19,1.12-.4,1.66-.64l.12.12.54-.18-.16-.17a21.7,21.7,0,0,0,8-6.68c.54.21,1.07.43,1.6.67l.35-.37c-.55-.25-1.1-.48-1.65-.7a25.58,25.58,0,0,0,3.6-7.2c.89.17,1.77.36,2.65.57l.19-.47c-.9-.21-1.8-.4-2.7-.58Zm.67-8.41H45.8A41.25,41.25,0,0,0,45,21.63c1.95-.25,3.84-.53,5.67-.88a27.13,27.13,0,0,1,1.45,8.56ZM38.56,21.72a59.36,59.36,0,0,0-1-6.37,46.6,46.6,0,0,0,4.66-.8,31.82,31.82,0,0,1,2.18,6.65c-2,.22-3.9.4-5.86.52Zm6,0a39.51,39.51,0,0,1,.77,7.62H38.94q0-3.55-.33-7.08c2-.13,4-.31,5.91-.54ZM31.31,35.86q-3.49,0-6.87.21c-.18-2.08-.26-4.17-.27-6.26H38.44q0,3.14-.27,6.26Q34.75,35.86,31.31,35.86Zm6.82.71a62,62,0,0,1-.9,6.36,53.27,53.27,0,0,0-11.84,0,59.37,59.37,0,0,1-.91-6.36c2.28-.14,4.55-.2,6.83-.2S35.86,36.43,38.13,36.57ZM31.31,22.46q3.39,0,6.78-.2.33,3.51.35,7H24.17q0-3.54.35-7,3.39.19,6.79.2Zm-6.74-.7a58.66,58.66,0,0,1,1-6.35,52.43,52.43,0,0,0,5.74.31A52.07,52.07,0,0,0,37,15.41a58.77,58.77,0,0,1,1,6.35c-2.2.12-4.44.19-6.73.19S26.81,21.89,24.57,21.76Zm12.9-6.91a27.72,27.72,0,0,0-2.25-6.53A12.75,12.75,0,0,0,37,7.55a18.51,18.51,0,0,1,5,6.55c-1.51.33-3,.58-4.55.76Zm-.55.07a52.58,52.58,0,0,1-5.61.3,52.62,52.62,0,0,1-5.62-.3,27.59,27.59,0,0,1,2.2-6.44A12.07,12.07,0,0,0,31.3,9a12,12,0,0,0,3.41-.5,27.11,27.11,0,0,1,2.21,6.44Zm-11.78-.07a43.61,43.61,0,0,1-4.55-.76,18.28,18.28,0,0,1,5-6.55,10.87,10.87,0,0,0,1.78.77,27.37,27.37,0,0,0-2.25,6.54Zm-.1.5a59,59,0,0,0-1,6.37c-2-.12-4-.3-5.86-.52a32.22,32.22,0,0,1,2.18-6.65,46,46,0,0,0,4.67.8Zm-1,6.88q-.33,3.52-.33,7.08H17.32a40.32,40.32,0,0,1,.77-7.62c1.92.23,3.9.41,5.91.54Zm-.33,7.58q0,3.15.25,6.29-3.08.19-6,.55a39.17,39.17,0,0,1-.6-6.84ZM24,36.6A58.64,58.64,0,0,0,24.85,43c-1.63.21-3.25.49-4.85.86a33.45,33.45,0,0,1-2-6.7q3-.36,5.95-.55Zm1,6.89A30.81,30.81,0,0,0,27,50.15a12.63,12.63,0,0,0-2.05,1,19.79,19.79,0,0,1-4.75-6.86A44.49,44.49,0,0,1,25,43.48Zm.54-.06a49.12,49.12,0,0,1,5.82-.32,49.07,49.07,0,0,1,5.81.32,31.32,31.32,0,0,1-2,6.53,11.81,11.81,0,0,0-7.61,0,31.7,31.7,0,0,1-2-6.53Zm12.18.06a48.11,48.11,0,0,1,4.75.82,20.18,20.18,0,0,1-4.76,6.87,11.87,11.87,0,0,0-2-1,31.35,31.35,0,0,0,2.06-6.66Zm.09-.49a62.72,62.72,0,0,0,.89-6.4q3,.19,6,.55a32.62,32.62,0,0,1-2,6.7A46.85,46.85,0,0,0,37.76,43Zm.93-6.9q.26-3.14.25-6.29H45.3a40.17,40.17,0,0,1-.61,6.84c-1.95-.24-4-.42-6-.55ZM50.53,20.28q-2.79.51-5.61.86a33.23,33.23,0,0,0-2.19-6.69c1.33-.32,2.65-.7,3.94-1.15a25,25,0,0,1,3.86,7ZM38.19,6.8a20.78,20.78,0,0,1,8.15,6.1A36.28,36.28,0,0,1,42.51,14a19.29,19.29,0,0,0-5.06-6.71C37.71,7.12,38,7,38.19,6.8Zm-.56-.22-.6.36a11.58,11.58,0,0,0-1.76-1.06A17.74,17.74,0,0,1,37.63,6.58Zm-1.09.62A11.4,11.4,0,0,1,35,7.87a7.71,7.71,0,0,0-1.79-2.21A9.58,9.58,0,0,1,36.53,7.2ZM34.44,8a11.53,11.53,0,0,1-3.15.45A11.83,11.83,0,0,1,28.13,8c1-1.65,2.05-2.59,3.18-2.59s2.19.95,3.15,2.6Zm-6.8-.16a10.9,10.9,0,0,1-1.57-.67,9.58,9.58,0,0,1,3.35-1.54A7.67,7.67,0,0,0,27.64,7.87Zm-.3-2a11.48,11.48,0,0,0-1.75,1.06,6,6,0,0,1-.6-.36,17.17,17.17,0,0,1,2.35-.7Zm-2.92.92c.24.17.49.32.74.47A19.23,19.23,0,0,0,20.1,14a39.69,39.69,0,0,1-3.83-1.09A20.78,20.78,0,0,1,24.42,6.8Zm-8.48,6.5a38,38,0,0,0,4,1.14,32.91,32.91,0,0,0-2.2,6.7c-1.87-.23-3.75-.52-5.61-.87A25.12,25.12,0,0,1,15.94,13.3Zm-4,7.46c1.83.33,3.72.63,5.67.87a41.25,41.25,0,0,0-.78,7.68H10.46a27.32,27.32,0,0,1,1.46-8.55Zm-1.45,9h6.35a40.35,40.35,0,0,0,.61,6.9c-2,.25-3.93.55-5.78.91a27.51,27.51,0,0,1-1.17-7.81Zm1.32,8.29q2.76-.51,5.73-.89a33,33,0,0,0,2,6.76,37.06,37.06,0,0,0-4.13,1.25,24.74,24.74,0,0,1-3.6-7.12Zm11.85,14a21.46,21.46,0,0,1-8-6.49,35,35,0,0,1,4-1.2,20.93,20.93,0,0,0,4.81,7c-.3.21-.6.43-.89.67Zm.52.23c.25-.2.5-.39.75-.56a12.16,12.16,0,0,0,2.43,1.58,17.69,17.69,0,0,1-3.19-1Zm1.2-.83a12,12,0,0,1,1.87-.92,8.89,8.89,0,0,0,2.2,3,10.25,10.25,0,0,1-4.07-2.08Zm6,2.3c-1.3,0-2.53-1.25-3.59-3.4a11.37,11.37,0,0,1,7.17,0C33.84,52.57,32.61,53.82,31.32,53.82ZM35.4,50.6a11.59,11.59,0,0,1,1.87.92A10,10,0,0,1,33.2,53.6a8.69,8.69,0,0,0,2.2-3Zm-.11,2.77a11.76,11.76,0,0,0,2.42-1.59c.26.17.51.37.75.56a18.45,18.45,0,0,1-3.18,1ZM39,52.11c-.29-.24-.58-.46-.89-.67a20.64,20.64,0,0,0,4.81-7,37.36,37.36,0,0,1,4,1.2,21.31,21.31,0,0,1-8,6.49Zm8.25-6.9A40,40,0,0,0,43.11,44a34.25,34.25,0,0,0,2-6.76c1.92.24,3.83.53,5.73.89a25,25,0,0,1-3.6,7.12ZM51,37.61c-1.92-.36-3.84-.67-5.78-.91a40.35,40.35,0,0,0,.61-6.9h6.35A27.87,27.87,0,0,1,51,37.61Z" style="fill: #a7a9ac"/>
    <path d="M31.3,5.11V54" style="fill: none;stroke: #a7a9ac;stroke-miterlimit: 22.952792118052685;stroke-width: 0.4635410653347165px"/>
    <path d="M6.65,30.22S.08,40.76,7.87,37.4C20.69,31.87,38.92,20.06,46.51,6L42,3.74,60,0l2.53,15.72-4.36-2.07s-22.2,25.28-48.57,30C3,44.84-6.64,44.42,6.65,30.22Z" style="fill: #006a33"/>
    <path d="M63,34h-.79V33.4h2.38V34h-.74l0,2.53h3.58l0-2.53h-.79V33.4h2.38V34H68.3l0,5.65h.79v.62H66.67v-.62h.75l0-2.5H63.85l0,2.5h.79v.62H62.24v-.62H63Zm12.16,1.19h1.63l0,3c0,.73.13,1.52,1.12,1.52,1.47,0,1.49-1.6,1.49-2.33V35.84H78.6v-.62h1.62l0,4.46h.71v.62h-1.5l0-.61.08-.5h0a1.87,1.87,0,0,1-1.71,1.24c-1.46,0-1.79-.93-1.79-2.08l0-2.5H75.2v-.64Zm12,4.46h.64l.05-3.83h-.82v-.63H88.7l0,.62-.08.5h0a1.87,1.87,0,0,1,1.8-1.24A1.43,1.43,0,0,1,92,36.28h0a1.71,1.71,0,0,1,1.72-1.19c1.4,0,1.74.94,1.74,1.91l0,2.67h.75v.62h-2.2v-.62h.65l0-2.46c0-.74-.15-1.45-1.1-1.45-.66,0-1.44.43-1.45,1.81l0,2.09h.73v.62H90.56v-.62h.65l0-2.46c0-.73-.16-1.44-1.1-1.44-.66,0-1.45.43-1.46,1.81l0,2.09h.74v.62h-2.2v-.62Zm16.26-3h-.73V35.49a4.71,4.71,0,0,1,1.79-.39c1.3,0,2,.48,2,1.83l-.06,2.74h.73v.62h-1.45v-.21a5.33,5.33,0,0,1,.09-.89h0a1.64,1.64,0,0,1-1.7,1.22A1.4,1.4,0,0,1,102.55,39c0-1.42,1.51-1.56,3.22-1.56V37c0-1-.37-1.32-1.17-1.32a3.13,3.13,0,0,0-1.13.21v.79Zm2.3,1.25c-1.2,0-2.42,0-2.42.95a.88.88,0,0,0,1,.88c.55,0,1.45-.31,1.45-1.83ZM117,39.67h.65l0-2.43c0-.49,0-1.47-1.15-1.47-.72,0-1.51.43-1.51,1.81l0,2.09h.74v.62h-2.2v-.62h.65l0-3.84h-.82v-.62H115a4.3,4.3,0,0,1,0,.62l-.07.5h0a1.87,1.87,0,0,1,1.81-1.24c1.39,0,1.74.94,1.74,1.91l0,2.66h.75v.62H117v-.62h0Zm16.59-6.27h2.3c1.24,0,2.53.19,2.53,1.77A1.79,1.79,0,0,1,136.77,37h0c.25,0,.57.22.89.78l.58,1c.43.72.49.83.9.83h.3v.62H139a1.17,1.17,0,0,1-1.29-.66l-.66-1.13c-.61-1-.77-1.26-1.38-1.26h-.54l0,2.43h.8v.62h-2.39v-.62h.75l0-5.65h-.78V33.4Zm1.61,3.22H136c.87,0,1.55-.38,1.55-1.37S136.82,34,135.92,34h-.73l0,2.6Zm11,1.2a1.75,1.75,0,0,0,1.93,1.93,3.41,3.41,0,0,0,1.53-.39l0,.71a4.82,4.82,0,0,1-1.67.35,2.37,2.37,0,0,1-2.6-2.65c0-1.49.8-2.66,2.34-2.66,2,0,2.2,1.81,2.2,2.72h-3.7Zm2.85-.62a1.37,1.37,0,0,0-1.35-1.48,1.5,1.5,0,0,0-1.51,1.48h2.86Zm10.89-.59h-.73l0-.72a1.76,1.76,0,0,0-.89-.18c-.52,0-1.17.17-1.17.78s.49.71,1.24.83c1.28.22,1.83.62,1.83,1.45s-.62,1.63-2.08,1.63a5,5,0,0,1-1.74-.31l0-1.3H157l0,.76a3.08,3.08,0,0,0,1.16.23c.53,0,1.17-.23,1.17-.85s-.53-.67-1.07-.8c-1.36-.29-2-.53-2-1.52,0-.82.54-1.53,2-1.53a5.16,5.16,0,0,1,1.6.31l0,1.22ZM169,35.1a2.34,2.34,0,0,1,2.46,2.51c0,1.62-.91,2.8-2.46,2.8a2.34,2.34,0,0,1-2.46-2.51A2.49,2.49,0,0,1,169,35.1Zm0,4.64c1.09,0,1.61-.89,1.61-2s-.52-2-1.61-2-1.61.88-1.61,2S168,39.74,169,39.74Zm8.64-4.53h1.63l0,3c0,.73.13,1.52,1.12,1.52,1.48,0,1.49-1.6,1.49-2.33V35.84h-.79v-.62h1.62l0,4.46h.71v.62h-1.5l0-.61.08-.5h0a1.86,1.86,0,0,1-1.71,1.24c-1.45,0-1.79-.93-1.79-2.08l0-2.5h-.82v-.64Zm12.71.63h-.87v-.62h1.68v.28c0,.29-.07.89-.12,1.31h0c.2-.75.47-1.68,1.73-1.68a1.87,1.87,0,0,1,.5.08l-.08.73a2,2,0,0,0-.55-.08c-1,0-1.51,1-1.52,1.92l-.05,1.9H192v.62h-2.38v-.62h.72l0-3.84Zm12.78,4.33a5.11,5.11,0,0,1-1.47.25,2.42,2.42,0,0,1-2.65-2.66,2.46,2.46,0,0,1,2.54-2.65,4.83,4.83,0,0,1,1.65.25v1.32h-.73v-.8a3.48,3.48,0,0,0-.85-.11c-1.46,0-1.76,1.16-1.76,2a1.84,1.84,0,0,0,1.93,2,4.42,4.42,0,0,0,1.38-.29l0,.71Zm7.25-2.35a1.74,1.74,0,0,0,1.93,1.93,3.36,3.36,0,0,0,1.52-.39l0,.71a4.77,4.77,0,0,1-1.67.35,2.37,2.37,0,0,1-2.6-2.65,2.36,2.36,0,0,1,2.36-2.66c2,0,2.19,1.81,2.19,2.72h-3.7Zm2.85-.62a1.37,1.37,0,0,0-1.34-1.48,1.5,1.5,0,0,0-1.51,1.48Zm10.89-.59h-.73l0-.72a1.8,1.8,0,0,0-.89-.18c-.51,0-1.18.17-1.18.78s.5.71,1.24.83c1.29.22,1.83.62,1.83,1.45s-.61,1.63-2.07,1.63a5,5,0,0,1-1.74-.31l0-1.3h.73l0,.76a3.08,3.08,0,0,0,1.16.23c.52,0,1.17-.23,1.17-.85s-.53-.67-1.08-.8c-1.35-.29-2-.53-2-1.52,0-.82.54-1.53,2-1.53a5.22,5.22,0,0,1,1.6.31l0,1.22Z" style="fill: #939598"/>
    <path d="M68.12,22.3V20.91a5.29,5.29,0,0,0-1.48-.21c-2.07,0-3.16,1.27-3.16,3.43,0,2,1.2,3.37,3,3.37A10,10,0,0,0,68,27.38l0-1.57H69.3l0,2.38a9.87,9.87,0,0,1-2.71.42c-3.12,0-4.6-1.94-4.6-4.42a4.38,4.38,0,0,1,4.71-4.59,7.75,7.75,0,0,1,2.71.48V22.3Zm5.25-.46c2.38,0,3.17,1.83,3.17,3.42a3.12,3.12,0,0,1-3.33,3.34A3,3,0,0,1,70,25.36a3.3,3.3,0,0,1,3.39-3.52Zm-.13,5.6c1.27,0,1.83-1.06,1.83-2.33,0-1.45-.76-2.1-1.73-2.1-1.37,0-1.89,1.16-1.89,2.3s.54,2.13,1.79,2.13Zm3.94,0h.73l0-4.43H77V22h2.3a8.54,8.54,0,0,1-.12,1.43h0a2.19,2.19,0,0,1,2.22-1.58,1.75,1.75,0,0,1,2,1.47h0a2.15,2.15,0,0,1,2.21-1.47c1.49,0,2.23,1,2.23,2.5l-.05,3.1h.83v1h-3v-1h.74l0-2.85c0-.91-.43-1.58-1.31-1.58s-1.55.76-1.58,2l0,2.47h.82v1H81.49v-1h.71l0-2.6c0-1-.25-1.83-1.29-1.83a1.78,1.78,0,0,0-1.61,2l0,2.47h.87v1h-3v-1ZM89,22h2.23a7.47,7.47,0,0,1-.13,1.32h0a2.17,2.17,0,0,1,2.15-1.47C94.81,21.84,96,23,96,24.91a3.36,3.36,0,0,1-3.48,3.69,3.51,3.51,0,0,1-1.28-.21l0,2.17h1v1H89.1v-1h.72L89.87,23H89V22Zm2.28,5.25a2.51,2.51,0,0,0,1.24.27,2.14,2.14,0,0,0,2-2.39c0-1.2-.52-2.11-1.56-2.11s-1.68.92-1.68,2.43v1.8Zm5.85-4.81a5.37,5.37,0,0,1,2.56-.59c1.91,0,2.52.95,2.52,2.48l0,3.12H103v1h-2a8.78,8.78,0,0,1,.11-1.35h0a2.08,2.08,0,0,1-2.15,1.49,1.84,1.84,0,0,1-2.07-1.84c0-1.7,1.73-1.93,2.79-2l1.34-.08v-.49c0-.79-.29-1.35-1.43-1.35a3.27,3.27,0,0,0-1.17.23V24H97.1V22.43Zm2.15,5.08a1.59,1.59,0,0,0,1.66-1.64v-.25c-1.44,0-2.69.08-2.69,1a.91.91,0,0,0,1,.87Zm4.45-.08h.73l0-4.43h-.91V22h2.3a9.75,9.75,0,0,1-.13,1.43h0A2.23,2.23,0,0,1,108,21.84c1.51,0,2.26,1,2.26,2.5l0,3.1h.84v1h-3v-1h.73l.05-2.85c0-.91-.42-1.58-1.3-1.58a1.79,1.79,0,0,0-1.71,2l0,2.47h.87v1h-3v-1Zm7.92,0h.73l0-7.52h-.93v-1h2.37l0,3.09a10.2,10.2,0,0,1-.17,1.43h0a2.23,2.23,0,0,1,2.27-1.58c1.52,0,2.25,1,2.25,2.5l-.05,3.1H119v1h-3v-1h.73l0-2.85c0-.91-.42-1.58-1.31-1.58a1.78,1.78,0,0,0-1.7,2l0,2.47h.87v1h-3v-1h0Zm7.8,0h.85l0-4.43h-1V22h2.38l0,5.45h.87v1h-3.11v-1ZM121,18.74a1,1,0,1,1,0,1.91h0a1,1,0,1,1,0-1.91Zm2.49,3.69a5.4,5.4,0,0,1,2.56-.59c1.91,0,2.52.95,2.52,2.48l-.05,3.12h.87v1h-2.05a8.78,8.78,0,0,1,.11-1.35h0a2.08,2.08,0,0,1-2.15,1.49,1.84,1.84,0,0,1-2.07-1.84c0-1.7,1.73-1.93,2.79-2l1.33-.08v-.49c0-.79-.29-1.35-1.43-1.35a3.34,3.34,0,0,0-1.17.23V24h-1.24V22.43Zm2.15,5.08a1.59,1.59,0,0,0,1.66-1.64v-.25c-1.44,0-2.69.08-2.69,1a.91.91,0,0,0,1,.87Zm12.8.95h-2.18a8.55,8.55,0,0,1,.13-1.32h0a2.17,2.17,0,0,1-2.15,1.47c-1.55,0-2.7-1.14-2.7-3.07A3.36,3.36,0,0,1,135,21.85a5.4,5.4,0,0,1,1.28.15l0-2.07h-1.18v-1h2.52l-.05,8.55h.87v1Zm-2.23-5.25a2.52,2.52,0,0,0-1.23-.27,2.13,2.13,0,0,0-2,2.38c0,1.21.52,2.12,1.56,2.12s1.67-.92,1.67-2.43v-1.8Zm8.44,4.94a6.29,6.29,0,0,1-2.27.45,3.14,3.14,0,0,1-3.4-3.36c0-1.91,1.08-3.41,3.17-3.41,1.93,0,2.92,1.42,2.92,3.42v.19h-4.63a2,2,0,0,0,2.21,2.06,4.68,4.68,0,0,0,2.08-.49l-.08,1.14Zm-1-3.66v-.12a1.47,1.47,0,0,0-1.53-1.51,1.57,1.57,0,0,0-1.63,1.64h3.16Zm3.6,2.94h.87l0-6.67h-1v-1h6.12l0,2.29h-1.15L152,20.76H149.5l0,2.69H152v1.09h-2.48l0,2.89h2.65l.1-1.42h1.17l-.11,2.43h-6.09v-1Zm10.75-3.6,0-.77a2.09,2.09,0,0,0-1.05-.21c-.65,0-1.31.14-1.31.78s.42.63.82.72l1.59.31a1.65,1.65,0,0,1,1.56,1.78c0,1.7-1.46,2.15-2.89,2.15a7.2,7.2,0,0,1-2.35-.39l0-1.76h1.24l0,.86a4.19,4.19,0,0,0,1.38.26c.66,0,1.31-.25,1.31-.91s-.42-.72-.94-.82l-1-.18c-1-.19-2.07-.56-2.07-1.79,0-1.52,1.34-2,2.75-2a7,7,0,0,1,2.25.42l0,1.58h-1.25ZM160.06,22h1l0-1.45,1.41-.1L162.42,22h1.84v1h-1.84l0,3c0,1.18.25,1.48.91,1.48a3,3,0,0,0,1.08-.25l0,1a3.52,3.52,0,0,1-1.43.33c-1.37,0-1.9-.54-1.9-2L161,23h-1V22Zm4.84.43a5.57,5.57,0,0,1,2.56-.59c1.92,0,2.52.95,2.52,2.48l0,3.12h.87v1h-2.05a7.5,7.5,0,0,1,.12-1.34h0a2.07,2.07,0,0,1-2.15,1.49,1.83,1.83,0,0,1-2.06-1.85c0-1.7,1.73-1.92,2.78-2l1.33-.09V24.2c0-.8-.29-1.36-1.43-1.36a3.37,3.37,0,0,0-1.17.23V24H164.9v-1.6Zm2.15,5.08a1.61,1.61,0,0,0,1.68-1.64V25.6c-1.44,0-2.7.09-2.7,1,0,.49.37.87,1,.87Zm-.61-6.86L169,18.54l.75.7-2.47,2ZM177.68,23l-1.24-.07a2,2,0,0,1,.54,1.4,2.44,2.44,0,0,1-2.63,2.3h-.52c-.35,0-.71.24-.71.49s.32.35,1.09.46l1.69.23c.91.13,1.71.48,1.71,1.56,0,1.75-1.72,2.35-3.41,2.35s-3-.66-3-1.72a1.6,1.6,0,0,1,1.5-1.53v0c-.48-.1-.95-.37-.95-1s.69-1,1.24-1.06v0a2.07,2.07,0,0,1-1.64-2.11c0-1.41,1-2.47,2.88-2.47a5.39,5.39,0,0,1,1.14.15h2.39l0,1Zm-4.15,5.65c-.64.28-1,.59-1,1.09,0,.75.79,1,1.84,1s1.95-.26,1.95-1.08c0-.46-.39-.62-1.16-.73l-1.61-.25Zm.75-3a1.35,1.35,0,0,0,1.53-1.4c0-.87-.6-1.36-1.6-1.36a1.4,1.4,0,0,0-1.57,1.41c0,.93.61,1.35,1.64,1.35ZM178,27.44h.84l0-4.43h-1V22h2.38l0,5.45h.87v1H178v-1Zm1.56-8.69a1,1,0,0,1,1,.93v0a1,1,0,1,1-1-.95Zm5.28,3.09c2.38,0,3.17,1.83,3.17,3.42a3.13,3.13,0,0,1-3.34,3.34,3,3,0,0,1-3.22-3.24,3.3,3.3,0,0,1,3.39-3.52Zm-.13,5.6c1.27,0,1.83-1.06,1.83-2.33,0-1.45-.76-2.1-1.73-2.1-1.38,0-1.89,1.16-1.89,2.3s.54,2.13,1.79,2.13Zm7.66-3.61,0-.77a2.06,2.06,0,0,0-1-.21c-.65,0-1.31.15-1.31.79,0,.49.42.63.82.72l1.58.31A1.65,1.65,0,0,1,194,26.44c0,1.71-1.47,2.15-2.9,2.15a6.93,6.93,0,0,1-2.35-.38l0-1.76h1.25l0,.86a4.13,4.13,0,0,0,1.38.26c.66,0,1.31-.25,1.31-.91s-.42-.72-.93-.82l-1-.19c-1-.18-2.07-.56-2.07-1.78,0-1.52,1.34-2.05,2.74-2.05a6.6,6.6,0,0,1,2.25.43l0,1.58Z" style="fill: #006a33"/>
    <path d="M196.58,19.13h1V31.56h-1Zm3.56,8.31H201l.05-6.67h-.94v-1h3.29a3.57,3.57,0,0,1,2.07.39,2.43,2.43,0,0,1,1.12,2.14,2.74,2.74,0,0,1-1.22,2.31,2.93,2.93,0,0,1-1.69.42h-1.28l0,2.43h1.07v1h-3.34v-1ZM203.41,24a1.53,1.53,0,0,0,1.75-1.66,1.59,1.59,0,0,0-.49-1.17,2,2,0,0,0-1.44-.37h-.77l0,3.21h1Zm3.73,3.46H208l.05-6.67h-.93v-1h3.28a3.61,3.61,0,0,1,2.07.39,2.43,2.43,0,0,1,1.12,2.14,2.74,2.74,0,0,1-1.22,2.31,2.93,2.93,0,0,1-1.69.42h-1.28l0,2.43h1.07v1h-3.34v-1ZM210.41,24a1.53,1.53,0,0,0,1.75-1.66,1.59,1.59,0,0,0-.49-1.17,2,2,0,0,0-1.44-.37h-.78l0,3.21h1Zm3.67,3.46H215l0-6.67h-1v-1h2.85l2.51,6.48a5.29,5.29,0,0,1,.2.71h0l.19-.71,2.49-6.48H225v1h-1l0,6.67H225v1h-3.16v-1h.86l0-5.88,0,0a11.83,11.83,0,0,1-.34,1.16l-2.22,5.77h-1.39l-2.18-5.54a12.56,12.56,0,0,1-.38-1.33h0l-.05,5.85h1v1h-3v-1Z" style="fill: #fdb913"/>
    <g style="clip-path: url(#clip-path)">
      <path d="M22.14,24.54A3.15,3.15,0,1,1,19,21.39a3.15,3.15,0,0,1,3.15,3.15Z" style="fill: #fdb913"/>
    </g>
    <g style="clip-path: url(#clip-path)">
      <path d="M21.44,24.54A2.45,2.45,0,1,1,19,22.1a2.45,2.45,0,0,1,2.45,2.44ZM19,20.69a3.86,3.86,0,1,0,3.85,3.85A3.85,3.85,0,0,0,19,20.69Z" style="fill: #fff"/>
    </g>
    <g style="clip-path: url(#clip-path)">
      <path d="M46.77,24.54a3.15,3.15,0,1,1-3.15-3.15A3.15,3.15,0,0,1,46.77,24.54Z" style="fill: #fdb913"/>
    </g>
    <g style="clip-path: url(#clip-path)">
      <path d="M46.06,24.54a2.45,2.45,0,1,1-2.44-2.44A2.45,2.45,0,0,1,46.06,24.54Zm-2.44-3.85a3.86,3.86,0,1,0,3.85,3.85A3.85,3.85,0,0,0,43.62,20.69Z" style="fill: #fff"/>
    </g>
    <g style="clip-path: url(#clip-path)">
      <path d="M35.5,18.28a4.19,4.19,0,1,1-4.2-4.18A4.2,4.2,0,0,1,35.5,18.28Z" style="fill: #006a33"/>
    </g>
    <g style="clip-path: url(#clip-path)">
      <path d="M34.79,18.28a3.45,3.45,0,1,1-3.48-3.48A3.48,3.48,0,0,1,34.79,18.28ZM31.3,13.39a4.9,4.9,0,1,0,4.9,4.89A4.9,4.9,0,0,0,31.3,13.39Z" style="fill: #fff"/>
    </g>
    <g style="clip-path: url(#clip-path)">
      <path d="M22.93,28.74H15.06a1.88,1.88,0,0,0-1.88,1.87V45.23A24,24,0,0,0,24.8,52.65v-22a1.87,1.87,0,0,0-1.87-1.87Z" style="fill: #fdb913"/>
    </g>
    <g style="clip-path: url(#clip-path)">
      <path d="M22.93,28H15.06a2.58,2.58,0,0,0-2.58,2.57V44.38L13.89,46V30.6a1.16,1.16,0,0,1,1.17-1.16h7.87A1.16,1.16,0,0,1,24.1,30.6V52.43l1.41.4V30.61A2.58,2.58,0,0,0,22.93,28Z" style="fill: #fff"/>
    </g>
    <g style="clip-path: url(#clip-path)">
      <path d="M49.43,45.23V30.61a1.88,1.88,0,0,0-1.88-1.87H39.68a1.87,1.87,0,0,0-1.87,1.87v22A23.82,23.82,0,0,0,49.43,45.23Z" style="fill: #fdb913"/>
    </g>
    <g style="clip-path: url(#clip-path)">
      <path d="M50.13,44.37V30.61A2.57,2.57,0,0,0,47.55,28H39.68a2.58,2.58,0,0,0-2.58,2.57V52.85l1.41-.4V30.61a1.17,1.17,0,0,1,1.17-1.16h7.87a1.16,1.16,0,0,1,1.17,1.16V46l1.41-1.64Z" style="fill: #fff"/>
    </g>
    <g style="clip-path: url(#clip-path)">
      <path d="M36.55,23.87H26.07a2.5,2.5,0,0,0-2.5,2.49h0v25.9a23.61,23.61,0,0,0,7.73,1.29A23.89,23.89,0,0,0,39,52.26V26.36a2.5,2.5,0,0,0-2.49-2.49Z" style="fill: #006a33"/>
    </g>
    <g style="clip-path: url(#clip-path)">
      <path d="M36.55,23.17H26.07a3.19,3.19,0,0,0-3.2,3.19V52l1.41.49V26.36a1.79,1.79,0,0,1,1.79-1.78H36.55a1.79,1.79,0,0,1,1.79,1.78V52.5l1.4-.49V26.36a3.19,3.19,0,0,0-3.19-3.19Z" style="fill: #fff"/>
    </g>
  </g>
</svg>
